<svg xmlns="http://www.w3.org/2000/svg" width="22.219" height="10.5" viewBox="0 0 22.219 10.5">
  <defs>
  </defs>
  <path id="seta" class="cls-1" d="M625.781,783.254h20.032m-3.307-4.922,4.85,5.165m0-.121-4.85,4.767" transform="translate(-625.781 -778)"/>
</svg>